method: GET, path: /, time: 1641821491084 
method: GET, path: /, time: 1641821716120 
method: POST, path: /, time: 1641821742140 
method: POST, path: /, time: 1641822044150 
method: POST, path: /, time: 1641822291503 
method: POST, path: /, time: 1641822320445 
method: POST, path: /, time: 1641822337686 
method: GET, path: /, time: 1641822454011 
method: POST, path: /, time: 1641822463251 
method: GET, path: /, time: 1641822490588 
method: POST, path: /, time: 1641822522260 
method: GET, path: /, time: 1641822528897 
method: GET, path: /, time: 1641823258554 
method: GET, path: /, time: 1641823378704 
method: POST, path: /, time: 1641825537007 
method: POST, path: /, time: 1641825669239 
method: GET, path: /, time: 1641825672379 
method: PUT, path: /61dc4501a305800ea818d036, time: 1641825683506 
method: PUT, path: /61dc4585cb874096fc86446a, time: 1641825960365 
method: GET, path: /, time: 1641826020413 
method: PUT, path: /61dc4585cb874096fc86446a/, time: 1641826046404 
method: PUT, path: /61dc4585cb874096fc86446a, time: 1641826058335 
method: GET, path: /, time: 1641826158148 
method: PUT, path: /61dc4585cb874096fc86446a, time: 1641826168385 
method: DELETE, path: /61dc4585cb874096fc86446a, time: 1641826252379 
method: GET, path: /, time: 1641826259584 
method: GET, path: /61dc38ffa305800ea818d02e, time: 1641826514667 
method: POST, path: /, time: 1641826537028 
method: GET, path: /, time: 1641826541576 
method: PUT, path: /61dc48e904cd55949342cfb4, time: 1641826600941 
method: GET, path: /, time: 1641826605848 
method: DELETE, path: /61dc393aa305800ea818d031, time: 1641826645909 
method: GET, path: /, time: 1641826851612 
method: POST, path: /, time: 1641826954490 
method: GET, path: /, time: 1641827153572 
method: PUT, path: /61dc4a8ac335d5f01838631b, time: 1641827376007 
method: GET, path: /, time: 1641827439981 
method: GET, path: /, time: 1641828848267 
method: POST, path: /, time: 1641828879126 
method: GET, path: /, time: 1641829028557 
method: POST, path: /, time: 1641829038847 
method: GET, path: /, time: 1641829097014 
method: POST, path: /, time: 1641829105130 
method: GET, path: /, time: 1641829112797 
method: PUT, path: /61dc48e904cd55949342cfb4, time: 1641829506532 
method: GET, path: /, time: 1641972780083 
method: GET, path: /, time: 1641972785306 
method: DELETE, path: /61dc52f1199eb19294b784e9, time: 1641972816419 
method: DELETE, path: /61dc52f1199eb19294b784e9, time: 1641972955259 
method: DELETE, path: /61dc52f1199eb19294b784e9, time: 1641973060956 
method: GET, path: /, time: 1641973131314 
method: DELETE, path: /61dc52aef6036a61645af6bb, time: 1641973166456 
method: GET, path: /, time: 1641973187216 
method: POST, path: /, time: 1641973263959 
method: POST, path: /, time: 1641973395864 
method: GET, path: /, time: 1641973403859 
method: POST, path: /, time: 1641973421467 
method: GET, path: /, time: 1641973432507 
method: DELETE, path: /61de86addb5f3c18fa4b1f12, time: 1641973463356 
method: GET, path: /, time: 1641973469140 
